%YAML 1.1
%TAG !u! tag:unity3d.com,2011:
--- !u!1 &3336853473140416653
GameObject:
  m_ObjectHideFlags: 0
  m_CorrespondingSourceObject: {fileID: 0}
  m_PrefabInstance: {fileID: 0}
  m_PrefabAsset: {fileID: 0}
  serializedVersion: 6
  m_Component:
  - component: {fileID: 4387876077483057195}
  m_Layer: 0
  m_Name: Fuchi
  m_TagString: NPC
  m_Icon: {fileID: 0}
  m_NavMeshLayer: 0
  m_StaticEditorFlags: 0
  m_IsActive: 1
--- !u!4 &4387876077483057195
Transform:
  m_ObjectHideFlags: 0
  m_CorrespondingSourceObject: {fileID: 0}
  m_PrefabInstance: {fileID: 0}
  m_PrefabAsset: {fileID: 0}
  m_GameObject: {fileID: 3336853473140416653}
  m_LocalRotation: {x: 0, y: 0, z: 0, w: 1}
  m_LocalPosition: {x: 18.84317, y: 0, z: 1.7708098}
  m_LocalScale: {x: 1, y: 1, z: 1}
  m_ConstrainProportionsScale: 0
  m_Children:
  - {fileID: 1364027246297161204}
  m_Father: {fileID: 0}
  m_RootOrder: -1
  m_LocalEulerAnglesHint: {x: 0, y: 0, z: 0}
--- !u!1001 &1542279397388745247
PrefabInstance:
  m_ObjectHideFlags: 0
  serializedVersion: 2
  m_Modification:
    serializedVersion: 2
    m_TransformParent: {fileID: 4387876077483057195}
    m_Modifications:
    - target: {fileID: -8679921383154817045, guid: 1befec0d54a69b04ba50cd5f8f9dc2ff, type: 3}
      propertyPath: m_RootOrder
      value: -1
      objectReference: {fileID: 0}
    - target: {fileID: -8679921383154817045, guid: 1befec0d54a69b04ba50cd5f8f9dc2ff, type: 3}
      propertyPath: m_LocalScale.x
      value: 28
      objectReference: {fileID: 0}
    - target: {fileID: -8679921383154817045, guid: 1befec0d54a69b04ba50cd5f8f9dc2ff, type: 3}
      propertyPath: m_LocalScale.y
      value: 28
      objectReference: {fileID: 0}
    - target: {fileID: -8679921383154817045, guid: 1befec0d54a69b04ba50cd5f8f9dc2ff, type: 3}
      propertyPath: m_LocalScale.z
      value: 28
      objectReference: {fileID: 0}
    - target: {fileID: -8679921383154817045, guid: 1befec0d54a69b04ba50cd5f8f9dc2ff, type: 3}
      propertyPath: m_LocalPosition.x
      value: 0
      objectReference: {fileID: 0}
    - target: {fileID: -8679921383154817045, guid: 1befec0d54a69b04ba50cd5f8f9dc2ff, type: 3}
      propertyPath: m_LocalPosition.y
      value: 0
      objectReference: {fileID: 0}
    - target: {fileID: -8679921383154817045, guid: 1befec0d54a69b04ba50cd5f8f9dc2ff, type: 3}
      propertyPath: m_LocalPosition.z
      value: 0
      objectReference: {fileID: 0}
    - target: {fileID: -8679921383154817045, guid: 1befec0d54a69b04ba50cd5f8f9dc2ff, type: 3}
      propertyPath: m_LocalRotation.w
      value: -0.032194924
      objectReference: {fileID: 0}
    - target: {fileID: -8679921383154817045, guid: 1befec0d54a69b04ba50cd5f8f9dc2ff, type: 3}
      propertyPath: m_LocalRotation.x
      value: -0
      objectReference: {fileID: 0}
    - target: {fileID: -8679921383154817045, guid: 1befec0d54a69b04ba50cd5f8f9dc2ff, type: 3}
      propertyPath: m_LocalRotation.y
      value: -0.9994816
      objectReference: {fileID: 0}
    - target: {fileID: -8679921383154817045, guid: 1befec0d54a69b04ba50cd5f8f9dc2ff, type: 3}
      propertyPath: m_LocalRotation.z
      value: -0
      objectReference: {fileID: 0}
    - target: {fileID: -8679921383154817045, guid: 1befec0d54a69b04ba50cd5f8f9dc2ff, type: 3}
      propertyPath: m_LocalEulerAnglesHint.x
      value: 0
      objectReference: {fileID: 0}
    - target: {fileID: -8679921383154817045, guid: 1befec0d54a69b04ba50cd5f8f9dc2ff, type: 3}
      propertyPath: m_LocalEulerAnglesHint.y
      value: -183.69
      objectReference: {fileID: 0}
    - target: {fileID: -8679921383154817045, guid: 1befec0d54a69b04ba50cd5f8f9dc2ff, type: 3}
      propertyPath: m_LocalEulerAnglesHint.z
      value: 0
      objectReference: {fileID: 0}
    - target: {fileID: 919132149155446097, guid: 1befec0d54a69b04ba50cd5f8f9dc2ff, type: 3}
      propertyPath: m_Name
      value: fuchi
      objectReference: {fileID: 0}
    - target: {fileID: 5866666021909216657, guid: 1befec0d54a69b04ba50cd5f8f9dc2ff, type: 3}
      propertyPath: m_Controller
      value: 
      objectReference: {fileID: 9100000, guid: b0cb04ec1fee35c4399a13afaafd3b68, type: 2}
    m_RemovedComponents: []
    m_AddedGameObjects: []
  m_SourcePrefab: {fileID: 100100000, guid: 1befec0d54a69b04ba50cd5f8f9dc2ff, type: 3}
--- !u!4 &1364027246297161204 stripped
Transform:
  m_CorrespondingSourceObject: {fileID: -8679921383154817045, guid: 1befec0d54a69b04ba50cd5f8f9dc2ff, type: 3}
  m_PrefabInstance: {fileID: 1542279397388745247}
  m_PrefabAsset: {fileID: 0}
