%YAML 1.1
%TAG !u! tag:unity3d.com,2011:
--- !u!319 &31900000
AvatarMask:
  m_ObjectHideFlags: 0
  m_CorrespondingSourceObject: {fileID: 0}
  m_PrefabInstance: {fileID: 0}
  m_PrefabAsset: {fileID: 0}
  m_Name: UpperBodyMask
  m_Mask: 00000000010000000100000000000000000000000100000001000000010000000100000000000000000000000000000000000000
  m_Elements:
  - m_Path: 
    m_Weight: 1
  - m_Path: Geometry
    m_Weight: 0
  - m_Path: Geometry/Armature_Mesh
    m_Weight: 0
  - m_Path: Skeleton
    m_Weight: 0
  - m_Path: Skeleton/Hips
    m_Weight: 0
  - m_Path: Skeleton/Hips/Left_UpperLeg
    m_Weight: 0
  - m_Path: Skeleton/Hips/Left_UpperLeg/Left_LowerLeg
    m_Weight: 0
  - m_Path: Skeleton/Hips/Left_UpperLeg/Left_LowerLeg/Left_Foot
    m_Weight: 0
  - m_Path: Skeleton/Hips/Left_UpperLeg/Left_LowerLeg/Left_Foot/Left_Toes
    m_Weight: 0
  - m_Path: Skeleton/Hips/Left_UpperLeg/Left_LowerLeg/Left_Foot/Left_Toes/Left_ToesEnd
    m_Weight: 0
  - m_Path: Skeleton/Hips/Right_UpperLeg
    m_Weight: 0
  - m_Path: Skeleton/Hips/Right_UpperLeg/Right_LowerLeg
    m_Weight: 0
  - m_Path: Skeleton/Hips/Right_UpperLeg/Right_LowerLeg/Right_Foot
    m_Weight: 0
  - m_Path: Skeleton/Hips/Right_UpperLeg/Right_LowerLeg/Right_Foot/Right_Toes
    m_Weight: 0
  - m_Path: Skeleton/Hips/Right_UpperLeg/Right_LowerLeg/Right_Foot/Right_Toes/Right_ToesEnd
    m_Weight: 0
  - m_Path: Skeleton/Hips/Spine
    m_Weight: 0
  - m_Path: Skeleton/Hips/Spine/Chest
    m_Weight: 0
  - m_Path: Skeleton/Hips/Spine/Chest/UpperChest
    m_Weight: 0
  - m_Path: Skeleton/Hips/Spine/Chest/UpperChest/Left_Shoulder
    m_Weight: 0
  - m_Path: Skeleton/Hips/Spine/Chest/UpperChest/Left_Shoulder/Left_UpperArm
    m_Weight: 0
  - m_Path: Skeleton/Hips/Spine/Chest/UpperChest/Left_Shoulder/Left_UpperArm/Left_LowerArm
    m_Weight: 0
  - m_Path: Skeleton/Hips/Spine/Chest/UpperChest/Left_Shoulder/Left_UpperArm/Left_LowerArm/Left_Hand
    m_Weight: 0
  - m_Path: Skeleton/Hips/Spine/Chest/UpperChest/Left_Shoulder/Left_UpperArm/Left_LowerArm/Left_Hand/Left_IndexProximal
    m_Weight: 0
  - m_Path: Skeleton/Hips/Spine/Chest/UpperChest/Left_Shoulder/Left_UpperArm/Left_LowerArm/Left_Hand/Left_IndexProximal/Left_IndexIntermediate
    m_Weight: 0
  - m_Path: Skeleton/Hips/Spine/Chest/UpperChest/Left_Shoulder/Left_UpperArm/Left_LowerArm/Left_Hand/Left_IndexProximal/Left_IndexIntermediate/Left_IndexDistal
    m_Weight: 0
  - m_Path: Skeleton/Hips/Spine/Chest/UpperChest/Left_Shoulder/Left_UpperArm/Left_LowerArm/Left_Hand/Left_IndexProximal/Left_IndexIntermediate/Left_IndexDistal/Left_IndexDistalEnd
    m_Weight: 0
  - m_Path: Skeleton/Hips/Spine/Chest/UpperChest/Left_Shoulder/Left_UpperArm/Left_LowerArm/Left_Hand/Left_MiddleProximal
    m_Weight: 0
  - m_Path: Skeleton/Hips/Spine/Chest/UpperChest/Left_Shoulder/Left_UpperArm/Left_LowerArm/Left_Hand/Left_MiddleProximal/Left_MiddleIntermediate
    m_Weight: 0
  - m_Path: Skeleton/Hips/Spine/Chest/UpperChest/Left_Shoulder/Left_UpperArm/Left_LowerArm/Left_Hand/Left_MiddleProximal/Left_MiddleIntermediate/Left_MiddleDistal
    m_Weight: 0
  - m_Path: Skeleton/Hips/Spine/Chest/UpperChest/Left_Shoulder/Left_UpperArm/Left_LowerArm/Left_Hand/Left_MiddleProximal/Left_MiddleIntermediate/Left_MiddleDistal/Left_MiddleDistalEnd
    m_Weight: 0
  - m_Path: Skeleton/Hips/Spine/Chest/UpperChest/Left_Shoulder/Left_UpperArm/Left_LowerArm/Left_Hand/Left_PinkyProximal
    m_Weight: 0
  - m_Path: Skeleton/Hips/Spine/Chest/UpperChest/Left_Shoulder/Left_UpperArm/Left_LowerArm/Left_Hand/Left_PinkyProximal/Left_PinkyIntermediate
    m_Weight: 0
  - m_Path: Skeleton/Hips/Spine/Chest/UpperChest/Left_Shoulder/Left_UpperArm/Left_LowerArm/Left_Hand/Left_PinkyProximal/Left_PinkyIntermediate/Left_PinkyDistal
    m_Weight: 0
  - m_Path: Skeleton/Hips/Spine/Chest/UpperChest/Left_Shoulder/Left_UpperArm/Left_LowerArm/Left_Hand/Left_PinkyProximal/Left_PinkyIntermediate/Left_PinkyDistal/Left_PinkyDistalEnd
    m_Weight: 0
  - m_Path: Skeleton/Hips/Spine/Chest/UpperChest/Left_Shoulder/Left_UpperArm/Left_LowerArm/Left_Hand/Left_RingProximal
    m_Weight: 0
  - m_Path: Skeleton/Hips/Spine/Chest/UpperChest/Left_Shoulder/Left_UpperArm/Left_LowerArm/Left_Hand/Left_RingProximal/Left_RingIntermediate
    m_Weight: 0
  - m_Path: Skeleton/Hips/Spine/Chest/UpperChest/Left_Shoulder/Left_UpperArm/Left_LowerArm/Left_Hand/Left_RingProximal/Left_RingIntermediate/Left_RingDistal
    m_Weight: 0
  - m_Path: Skeleton/Hips/Spine/Chest/UpperChest/Left_Shoulder/Left_UpperArm/Left_LowerArm/Left_Hand/Left_RingProximal/Left_RingIntermediate/Left_RingDistal/Left_RingDistalEnd
    m_Weight: 0
  - m_Path: Skeleton/Hips/Spine/Chest/UpperChest/Left_Shoulder/Left_UpperArm/Left_LowerArm/Left_Hand/Left_ThumbProximal
    m_Weight: 0
  - m_Path: Skeleton/Hips/Spine/Chest/UpperChest/Left_Shoulder/Left_UpperArm/Left_LowerArm/Left_Hand/Left_ThumbProximal/Left_ThumbIntermediate
    m_Weight: 0
  - m_Path: Skeleton/Hips/Spine/Chest/UpperChest/Left_Shoulder/Left_UpperArm/Left_LowerArm/Left_Hand/Left_ThumbProximal/Left_ThumbIntermediate/Left_ThumbDistal
    m_Weight: 0
  - m_Path: Skeleton/Hips/Spine/Chest/UpperChest/Left_Shoulder/Left_UpperArm/Left_LowerArm/Left_Hand/Left_ThumbProximal/Left_ThumbIntermediate/Left_ThumbDistal/Left_ThumbDistalEnd
    m_Weight: 0
  - m_Path: Skeleton/Hips/Spine/Chest/UpperChest/Neck
    m_Weight: 0
  - m_Path: Skeleton/Hips/Spine/Chest/UpperChest/Neck/Head
    m_Weight: 0
  - m_Path: Skeleton/Hips/Spine/Chest/UpperChest/Neck/Head/Jaw
    m_Weight: 0
  - m_Path: Skeleton/Hips/Spine/Chest/UpperChest/Neck/Head/Left_Eye
    m_Weight: 0
  - m_Path: Skeleton/Hips/Spine/Chest/UpperChest/Neck/Head/Right_Eye
    m_Weight: 0
  - m_Path: Skeleton/Hips/Spine/Chest/UpperChest/Neck/Neck_Twist_A
    m_Weight: 0
  - m_Path: Skeleton/Hips/Spine/Chest/UpperChest/Right_Shoulder
    m_Weight: 0
  - m_Path: Skeleton/Hips/Spine/Chest/UpperChest/Right_Shoulder/Right_UpperArm
    m_Weight: 0
  - m_Path: Skeleton/Hips/Spine/Chest/UpperChest/Right_Shoulder/Right_UpperArm/Right_LowerArm
    m_Weight: 0
  - m_Path: Skeleton/Hips/Spine/Chest/UpperChest/Right_Shoulder/Right_UpperArm/Right_LowerArm/Right_Hand
    m_Weight: 0
  - m_Path: Skeleton/Hips/Spine/Chest/UpperChest/Right_Shoulder/Right_UpperArm/Right_LowerArm/Right_Hand/Right_IndexProximal
    m_Weight: 0
  - m_Path: Skeleton/Hips/Spine/Chest/UpperChest/Right_Shoulder/Right_UpperArm/Right_LowerArm/Right_Hand/Right_IndexProximal/Right_IndexIntermediate
    m_Weight: 0
  - m_Path: Skeleton/Hips/Spine/Chest/UpperChest/Right_Shoulder/Right_UpperArm/Right_LowerArm/Right_Hand/Right_IndexProximal/Right_IndexIntermediate/Right_IndexDistal
    m_Weight: 0
  - m_Path: Skeleton/Hips/Spine/Chest/UpperChest/Right_Shoulder/Right_UpperArm/Right_LowerArm/Right_Hand/Right_IndexProximal/Right_IndexIntermediate/Right_IndexDistal/Right_IndexDistalEnd
    m_Weight: 0
  - m_Path: Skeleton/Hips/Spine/Chest/UpperChest/Right_Shoulder/Right_UpperArm/Right_LowerArm/Right_Hand/Right_MiddleProximal
    m_Weight: 0
  - m_Path: Skeleton/Hips/Spine/Chest/UpperChest/Right_Shoulder/Right_UpperArm/Right_LowerArm/Right_Hand/Right_MiddleProximal/Right_MiddleIntermediate
    m_Weight: 0
  - m_Path: Skeleton/Hips/Spine/Chest/UpperChest/Right_Shoulder/Right_UpperArm/Right_LowerArm/Right_Hand/Right_MiddleProximal/Right_MiddleIntermediate/Right_MiddleDistal
    m_Weight: 0
  - m_Path: Skeleton/Hips/Spine/Chest/UpperChest/Right_Shoulder/Right_UpperArm/Right_LowerArm/Right_Hand/Right_MiddleProximal/Right_MiddleIntermediate/Right_MiddleDistal/Right_MiddleDistalEnd
    m_Weight: 0
  - m_Path: Skeleton/Hips/Spine/Chest/UpperChest/Right_Shoulder/Right_UpperArm/Right_LowerArm/Right_Hand/Right_PinkyProximal
    m_Weight: 0
  - m_Path: Skeleton/Hips/Spine/Chest/UpperChest/Right_Shoulder/Right_UpperArm/Right_LowerArm/Right_Hand/Right_PinkyProximal/Right_PinkyIntermediate
    m_Weight: 0
  - m_Path: Skeleton/Hips/Spine/Chest/UpperChest/Right_Shoulder/Right_UpperArm/Right_LowerArm/Right_Hand/Right_PinkyProximal/Right_PinkyIntermediate/Right_PinkyDistal
    m_Weight: 0
  - m_Path: Skeleton/Hips/Spine/Chest/UpperChest/Right_Shoulder/Right_UpperArm/Right_LowerArm/Right_Hand/Right_PinkyProximal/Right_PinkyIntermediate/Right_PinkyDistal/Right_PinkyDistalEnd
    m_Weight: 0
  - m_Path: Skeleton/Hips/Spine/Chest/UpperChest/Right_Shoulder/Right_UpperArm/Right_LowerArm/Right_Hand/Right_RingProximal
    m_Weight: 0
  - m_Path: Skeleton/Hips/Spine/Chest/UpperChest/Right_Shoulder/Right_UpperArm/Right_LowerArm/Right_Hand/Right_RingProximal/Right_RingIntermediate
    m_Weight: 0
  - m_Path: Skeleton/Hips/Spine/Chest/UpperChest/Right_Shoulder/Right_UpperArm/Right_LowerArm/Right_Hand/Right_RingProximal/Right_RingIntermediate/Right_RingDistal
    m_Weight: 0
  - m_Path: Skeleton/Hips/Spine/Chest/UpperChest/Right_Shoulder/Right_UpperArm/Right_LowerArm/Right_Hand/Right_RingProximal/Right_RingIntermediate/Right_RingDistal/Right_RingDistalEnd
    m_Weight: 0
  - m_Path: Skeleton/Hips/Spine/Chest/UpperChest/Right_Shoulder/Right_UpperArm/Right_LowerArm/Right_Hand/Right_ThumbProximal
    m_Weight: 0
  - m_Path: Skeleton/Hips/Spine/Chest/UpperChest/Right_Shoulder/Right_UpperArm/Right_LowerArm/Right_Hand/Right_ThumbProximal/Right_ThumbIntermediate
    m_Weight: 0
  - m_Path: Skeleton/Hips/Spine/Chest/UpperChest/Right_Shoulder/Right_UpperArm/Right_LowerArm/Right_Hand/Right_ThumbProximal/Right_ThumbIntermediate/Right_ThumbDistal
    m_Weight: 0
  - m_Path: Skeleton/Hips/Spine/Chest/UpperChest/Right_Shoulder/Right_UpperArm/Right_LowerArm/Right_Hand/Right_ThumbProximal/Right_ThumbIntermediate/Right_ThumbDistal/Right_ThumbDistalEnd
    m_Weight: 0
